{
  "missId":"MISS_OPTIONS",
  "es":"Opciones",
  "en":"Options",
  "fr":"Options"
},
{
  "missId":"MISS_KEYFOBS",
  "es":"Códigos mandos inhalámbricos",
  "en":"keyfob's codes",
  "fr":"Codification télécommande"
},

{
  "missId":"MISS_SERVICE_USER",
  "es":"Usuario de servicio",
  "en":"Maid code",
  "fr":"Maid code"
},
{
  "missId":"MISS_ACCESS_USER",
  "es":"solo acceso",
  "en":"Only acces",
  "fr":"accès seulement"
},

{
  "missId":"MISS_REPORTS_ARMING",
  "es":"Reporta conexión de usuario",
  "en":"Report User arming",
  "fr":"Rapport d'armement de l'utilisateur 1"
},

{
  "missId":"MISS_REPORTS_DISARMING",
  "es":"Reporta desconexión de usuario",
  "en":"Report User disarming",
  "fr":"Rapport de désarmement de l'utilisateur"
},

{
  "missId":"MISS_USER_AREAS",
  "es":"Áreas de Usuario",
  "en":"User Areas",
  "fr":"Secteurs utilisateur"
},

{
  "missId":"MISS_USER_CALENDAR",
  "es":"Calendario Usuarios",
  "en":"User's Calendar",
  "fr":"Calendrier utilisateurs"
},

{
  "missId":"MISS_TIMETABLE_INIT",
  "es":"Hora inicio intervalo  (Horas:Minutos-00,15,30 ó 45)",
  "en":"Init hour (Hours:Minutes-00,15,30 or 45)",
  "fr":"Heure de début intervale(Hours:Minutes-00,15,30 or 45)"
},

{
  "missId":"MISS_TIMETABLE_END",
  "es":"Hora final intervalo  (Horas:Minutos-00,15,30 ó 45)",
  "en":"Final hour (Hours:Minutes-00,15,30 or 45)",
  "fr":"Heure de fin intervale (Hours:Minutes-00,15,30 or 45)"
},
{
  "missId":"MISS_AUT_DISARMING",
  "es":"Desarmado automático",
  "en":"Automatic disarming",
  "fr":"Désarmement automatique"
},
{
  "missId":"MISS_CALENDAR_AUT_DISARMING",
  "es":"Calendario desarmado automático",
  "en":"Automatic disarming Calendar",
  "fr":"Calendrier désarmement automatique"
},
{
  "missId":"MISS_AUT_ARMING",
  "es":"Armado automático",
  "en":"Automatic arming",
  "fr":"Armement automatique"
},
{
  "missId":"MISS_CALENDAR_AUT_ARMING",
  "es":"Calendario armado automático",
  "en":"Automatic arming Calendar",
  "fr":"Calendrier armement automatique"
},
{
  "missId":"MISS_TIMES",
  "es":"Tiempos",
  "en":"Times",
  "fr":"Temps"
},
{
  "missId":"MISS_DELAY_ACFAIL",
  "es":"Retardo envío fallo Red (Segundos) [00000 deshabilita reporte fallo AC]",
  "en":"Mains failure report delay (Seconds) [000 disables mains failure report]",
  "fr":"Retard d'envoie du défaut d'alimentation reseau electrique (Seconds) [000 désactive rapport panne de courant]"
},
{
  "missId":"MISS_TENTRY1",
  "es":"Tiempo Entrada 1 (Segundos)",
  "en":"Entry delay 1 (Seconds)",
  "fr":"Temps d'entrée 1  (Secondes)"
},
{
  "missId":"MISS_TENTRY2",
  "es":"Tiempo Entrada 2 (Segundos)",
  "en":"Entry delay 2 (Seconds)",
  "fr":"Temps d'entrée 2 (Secondes)"
},
{
  "missId":"MISS_TEXIT",
  "es":"Tiempo Salida (Segundos)",
  "en":"Exit delay (Seconds)",
  "fr":"Temps de sortie (Secondes)"
},
{
  "missId":"MISS_TPREFIRE",
  "es":"Tiempo Prealarma de fuego (Segundos)",
  "en":"Fire near alarm Time (Seconds)",
  "fr":"Temps de préalarme de feu (Secondes)"
},
{
  "missId":"MISS_TREPORTTEST",
  "es":"Tiempo Cadencia test telefónico (min)",
  "en":"Phone test Cadence time (min)",
  "fr":"Cadence du test téléphonique (min)"
},
{
  "missId":"MISS_DELAY_REPORTLINE",
  "es":"Retardo de Reportaje fallos de línea (sec)",
  "en":"Line failures, report Delay (sec)",
  "fr":"Retard de rapport des defauts de ligne (sec)"
},
{
  "missId":"MISS_DELAY_REPORTENTRY",
  "es":"Retardo de Reportaje en tiempo de entrada (sec)",
  "en":"Report Delay during entry time. (sec)",
  "fr":"Retard de rapport au temps d'entrée.  (sec)"
},
{
  "missId":"MISS_CALENDAR",
  "es":"Calendario semanal",
  "en":"Weekly calendar",
  "fr":"Calendrier setmaine"
},
{
  "missId":"MISS_MONDAY",
  "es":"Lunes",
  "en":"Monday",
  "fr":"Lundi"
},
{
  "missId":"MISS_TUESDAY",
  "es":"Martes",
  "en":"Thuesday",
  "fr":"Mardi"
},
{
  "missId":"MISS_WEDNESDAY",
  "es":"Miércoles",
  "en":"Options",
  "fr":"Options"
},

  {
  "missId":"MISS_THURSDAY",
  "es":"Jueves",
  "en":"Thursday",
  "fr":"Jeudi"
},
{
  "missId":"MISS_FRIDAY",
  "es":"Viernes",
  "en":"Friday",
  "fr":"Vendredi"
},
{
  "missId":"MISS_SATURDAY",
  "es":"Sábado",
  "en":"Saturday",
  "fr":"Samedi"
},

  {
  "missId":"MISS_SUNDAY",
  "es":"Domingo",
  "en":"Sunday",
  "fr":"Dimanche"
},
{
  "missId":"MISS_TIMERDET",
  "es":"Timer Detección",
  "en":"Detection Timer",
  "fr":"Temps de Detection"
},
{
  "missId":"MISS_OPT1",
  "es":"Funciones del sistema",
  "en":"Kernel functions",
  "fr":"Fonctions du noyau"
},
{
  "missId":"MISS_OPT12",
  "es":"Activa el doblado de zonas",
  "en":"Enables zone doubling",
  "fr":"Active le mode de travail 'Zones doublées'"
},
{
  "missId":"MISS_OPT11",
  "es":"La detección de Tamper, genera alarma en la zona",
  "en":"Tamper detection will cause alarm in the zone",
  "fr":"La détecton de tamper génère une alarme dans la zone"
},
{
  "missId":"MISS_OPT13",
  "es":"Usa hora local",
  "en":"Uses local time",
  "fr":"Uses local time"
},
{
  "missId":"MISS_OPT2",
  "es":"Opciones de interface usuario",
  "en":"User interface options",
  "fr":"Options du interface utilisateur"
},
{
  "missId":"MISS_OPT21",
  "es":"Anula el teclado por introducción de 4 códigos erróneos consecutivos",
  "en":"Disables the keypad after 4 wrong code tries.",
  "fr":"Désactive le clavier lors de l'introduction de 4 codes erronés"
},
{
  "missId":"MISS_OPT22",
  "es":"Cancela la función de test de salidas por teclado",
  "en":"Disables the outputs test function through the keypad",
  "fr":"Désactive la fonction de test des sorties depuis le clavier"
},
{
  "missId":"MISS_OPT23",
  "es":"Anula el sonido del teclado durante la ruta de entrada / salida",
  "en":"Disables the keypad sound during the entry/exit path",
  "fr":"Désactive le son du clavier durant la route d'entrée/sortie"
},
{
  "missId":"MISS_OPT24",
  "es":"Cancela el sonido de alerta en el teclado",
  "en":"Disables the Keypad alert sound on the keyboard",
  "fr":"Annuler l'alerte sonore sur le clavier"
},
{
  "missId":"MISS_OPT25",
  "es":"Usa ringer para advertir en tiempo de entrada",
  "en":"Actives ring to alert entry time",
  "fr":"Active la sonnerie du téléphone pendant le temps d'entrée"
},
{
  "missId":"MISS_ENGRADE",
  "es":"Grado EN50131",
  "en":"EN50131 Grade",
  "fr":"EN50131 Grade"
},
{
  "missId":"MISS_ZCIE",
  "es":"Zona CIE",
  "en":"CIE Zone",
  "fr":"CIE Zone"
},
{
  "missId":"MISS_INDICATIONS",
  "es":"Indicaciones de grado",
  "en":"Grade Indications",
  "fr":"Grade Indications"
},
{
  "missId":"MISS_INDACT",
  "es":"Indicaciones activas",
  "en":"Active indications",
  "fr":"Active indications"
},
{
  "missId":"MISS_INDENABLE",
  "es":"Indicaciones habilitadas",
  "en":"Indications enabled",
  "fr":"Permis indications"
},
{
  "missId":"MISS_INDACK",
  "es":"Indicaciones reconocidas",
  "en":"ACK indications",
  "fr":"ACK indications"
},
{
  "missId":"MISS_INDBYPASS",
  "es":"Indicaciones derogadas",
  "en":"Derogated indications",
  "fr":"Derogated indications"
},
{
  "missId":"MISS_INDENERGY",
  "es":"Indicaciones de energía habilitadas",
  "en":"Power Enabled indications",
  "fr":"Indicateurs d'energie permis"
},
{
  "missId":"MISS_INDACFAIL",
  "es":"Fallo Red",
  "en":"AC fail",
  "fr":"pannel courrant"
},
{
  "missId":"MISS_INDBATTFAIL",
  "es":"Reemplazar batería",
  "en":"Need battery replace",
  "fr":"Remplacer la batterie"
},
{
  "missId":"MISS_INDRESET",
  "es":"Error proceso del CIE (reset)",
  "en":" CIE processing error (reset)",
  "fr":" CIE processing error (reset)"
},
{
  "missId":"MISS_INDPSOUTFAIL",
  "es":"Fallo en salida fuente alimentación",
  "en":"Power supply output failure",
  "fr":"Défaut de sortie de l'alimentation"
},
{
  "missId":"MISS_INDOUTFAIL",
  "es":"Avería salida",
  "en":"Output failure",
  "fr":"Erreur Sortie"
},
{
  "missId":"MISS_INDTAMPER",
  "es":"Tamper panel principal.",
  "en":" Panel Tamper",
  "fr":" Panel Tamper"
},
{
  "missId":"MISS_INDTAMPERMOD",
  "es":"Tamper módulo de expansión",
  "en":" Exp module Tamper",
  "fr":" Exp module Tamper"
},
{
  "missId":"MISS_INDCOMM",
  "es":"Indicaciones de comunicaciones",
  "en":"Communications indications",
  "fr":"Indicateurs de communication"
},
{
  "missId":"MISS_INDPSTNFAIL",
  "es":"Avería RTC",
  "en":" PSTN failure",
  "fr":" Défaut PSTN"
},
{
  "missId":"MISS_INDGSMFAIL",
  "es":"Avería GSM",
  "en":"GSM failure",
  "fr":"Défaut GSM"
},

  {
  "missId":"MISS_INDETHFAIL",
  "es":"Avería LAN",
  "en":"LAN failure",
  "fr":"Défaut LAN"
},
{
  "missId":"MISS_INDLRWFAIL",
  "es":"Avería Radio LORA",
  "en":"LORA radio failure",
  "fr":"Défaut sans fils LORA"
},
{
  "missId":"MISS_INDFAILREPORT",
  "es":"Error al reportar",
  "en":"Fail to report",
  "fr":"Fail to report"
},
{
  "missId":"MISS_INDRS485FAIL",
  "es":"Avería RS485",
  "en":"RS485 failure",
  "fr":"Défaut RS485"
},
{
  "missId":"MISS_INDWFAIL",
  "es":"Avería sistema inalámbrico",
  "en":" Wireless failure",
  "fr":"Défaut sans fils"
},

  {
  "missId":"MISS_INDMISC",
  "es":"Indicaciones miscelánea habilitadas",
  "en":"Misc. Enabled indications",
  "fr":"Indicateurs misc. permis"
},
{
  "missId":"MISS_INDLOWBATTKEYFOB",
  "es":" Batería baja mando inalámbrico",
  "en":" Keyfob Lowbatt",
  "fr":"Batterie Télécommande faible"
},
{
  "missId":"MISS_INDNEARAUTOARM",
  "es":" 1 minuto para Armado automático",
  "en":" Near autoarming",
  "fr":" Near autoarming"
},
{
  "missId":"MISS_INDCLOCKFAIL",
  "es":"Reloj fuera de hora",
  "en":"Clock out of time",
  "fr":"Clock out of time"
},
{
  "missId":"MISS_INDSWRFAIL",
  "es":" Fallo ROE antena sistema inalámbrico",
  "en":" Wireless antenna SWR failure",
  "fr":" Wireless antenna SWR failure"
},
{
  "missId":"MISS_ZFEATURES",
  "es":"Características zonas",
  "en":"Zones features",
  "fr":"Caractéristiques des zones"
},
{
  "missId":"MISS_ANALARMH",
  "es":"Valor analógico, genera alarma si se supera",
  "en":"Alarm analog value, high limit",
  "fr":"Alarm analog value, high limit"
},
{
  "missId":"MISS_ANALARML",
  "es":"Valor analógico, genera alarma si baja de",
  "en":"Alarm analog value, low limit",
  "fr":"Alarm analog value, low limit"
},
{
  "missId":"MISS_ZTYPE",
  "es":"Modo funcional zona",
  "en":"Functional mode",
  "fr":"Mode functionnel"
},
{
  "missId":"T_IN_BYPASS",
  "es":"Omitible",
  "en":"Bypass enabled",
  "fr":"Bypass enabled"
},
{
  "missId":"T_IN_AUTOBYPASS",
  "es":"Auto Bypass (Armar y 5 alarmas)",
  "en":"Auto-bypass (arming and 5 alarms)",
  "fr":"Auto-bypass (arming and 5 alarms)"
},
{
  "missId":"T_IN_PERIMETER",
  "es":"Armado perimetral",
  "en":"Perimetral arming",
  "fr":"Perimetral arming"
},
{
  "missId":"T_IN_NIGHTBY",
  "es":"Armado noche",
  "en":"Night arming bypass",
  "fr":"Night arming bypass"
},
{
  "missId":"T_IN_CHIME",
  "es":"Chime",
  "en":"Chime",
  "fr":"Chime"
},

{
  "missId":"MISS_GPWR",
  "es":"Pwr reduction: gprs class",
  "en":"Pwr reduction: gprs class",
  "fr":"Pwr reduction: gprs class"
},
{
  "missId":"MISS_GOPTIONS",
  "es":"Opciones Comunicador GSM",
  "en":"GSM Communicator Options",
  "fr":"Options communicateur GSM"
},
{
  "missId":"MISS_GOPT1",
  "es":"Habilita el registro a la red gsm en modo roaming",
  "en":" Enables gsm roaming mode",
  "fr":" Autorise enregistrement au reseau en mode roaming"
},
{
  "missId":"MISS_GOPT2",
  "es":"Sólo teléfonos registrados",
  "en":"Only registered phone numbers",
  "fr":"Only registered phone numbers"
},
{
  "missId":"MISS_GOPT3",
  "es":"Deshabilita NITZ",
  "en":"Disable NITZ",
  "fr":"Disable NITZ"
},
{
  "missId":"MISS_LOUT",
  "es":"Configuración terminal LOUT",
  "en":"LOUT terminal Configuration",
  "fr":"LOUT terminal Configuration"
},
{
  "missId":"MISS_LOUTOPT",
  "es":"Opciones funcionamiento",
  "en":"Working options",
  "fr":"Working options"
},
{
  "missId":"MISS_LOUTOPT1",
  "es":"LOUT trabaja como simulador PBX",
  "en":"LOUT works as PBX Simulator",
  "fr":"LOUT works as PBX Simulator"
},
{
  "missId":"MISS_LOUTOPT2",
  "es":"LOUT trabaja como salida dimming PWM ",
  "en":"LOUT works as PWM dimming",
  "fr":"LOUT works as PWM dimming"
},
{
  "missId":"MISS_LOUTOPT3",
  "es":"LOUT trabaja como salida dimming 1-10",
  "en":"LOUT works as 1-10 dimming",
  "fr":"LOUT works as 1-10 dimming"
},
{
  "missId":"MISS_LOUTOPT4",
  "es":"LOUT trabaja como interface DALI",
  "en":"LOUT works as DALI interface",
  "fr":"LOUT works as DALI interface"
},
{
  "missId":"MISS_LOUTOPT5",
  "es":"LOUT trabaja como Salida 3",
  "en":"LOUT works as Output 3",
  "fr":"LOUT works as Output 3"
},
{
  "missId":"MISS_PBXOPT",
  "es":"Opciones trabajo en modo PBX",
  "en":"PBX working modes",
  "fr":"PBX working modes"
},
{
  "missId":"MISS_PBXOPT1",
  "es":"Modo captura CRA siempre",
  "en":"CS capture mode all",
  "fr":"CS capture mode all"
},
{
  "missId":"MISS_PBXOPT2",
  "es":"Habilita llamadas de voz",
  "en":"Enables audio calls",
  "fr":"Enables audio calls"
},
{
  "missId":"MISS_PBXOPT3",
  "es":"Habilita llamadas a números no registrados",
  "en":"Enables audio calls to unregistered phones",
  "fr":"Enables audio calls to unregistered phones"
},
{
  "missId":"MISS_MPBX",
  "es":"Dígito PBX",
  "en":"PBX digit",
  "fr":"Numérique PBX"
},
{
  "missId":"MISS_VPBX",
  "es":"Tensión PBX",
  "en":"PBX Voltage",
  "fr":"PBX Voltage"
},
{
  "missId":"MISS_IP_COMM",
  "es":"Ajustes IP (GPRS/LAN)",
  "en":"IP Settings (GPRS/LAN)",
  "fr":"Paramètres IP (GPRS / LAN)"
},
{
  "missId":"MISS_IPOPTIONS",
  "es":"Opciones",
  "en":"Options",
  "fr":"Options"
},
{
  "missId":"MISS_IPOPT1",
  "es":"Habilita conexión GPRS",
  "en":"Enables GPRS connection",
  "fr":"Enables GPRS connection"
},
{
  "missId":"MISS_IPOPT2",
  "es":"Habilita GPRS en roaming",
  "en":"Enables GPRS in roaming",
  "fr":"Enables GPRS in roaming"
},
{
  "missId":"MISS_IPOPT3",
  "es":"Habilita puertos GPRS server",
  "en":"Enables GPRS server ports",
  "fr":"Enables GPRS server ports"
},
{
  "missId":"MISS_IPOPT4",
  "es":"Sólo IP’s registradas",
  "en":"Only registered IP’s",
  "fr":"Only registered IP’s"
},
{
  "missId":"MISS_IPTESTFAST",
  "es":"Cadencia del test IP rápido",
  "en":"IP Test cadence-Fast",
  "fr":"Cadence du test IP rapide"
},
{
  "missId":"MISS_IPTESTSLOW",
  "es":"Cadencia del test IP Slow",
  "en":"IP Test cadence Slow mode",
  "fr":"Cadence du test IP stop"
},
{
  "missId":"MISS_GPRSALIAS",
  "es":"GPRS alias",
  "en":"GPRS alias",
  "fr":"GPRS alias"
},
{
  "missId":"MISS_USERGPRS",
  "es":"Usuario GPRS",
  "en":"GPRS USER",
  "fr":"Utilisateur GPRS"
},
{
  "missId":"MISS_PASSGPRS",
  "es":"Contraseña GPRS",
  "en":"GPRS PASSWORD",
  "fr":"Mot de passe GPRS"
},
{
  "missId":"MISS_APNGPRS",
  "es":"GPRS APN",
  "en":"GPRS APN",
  "fr":"GPRS APN"
},
{
  "missId":"MISS_GPRSPORT",
  "es":"Puerto de escucha GPRS",
  "en":"GPRS Listening port",
  "fr":"Port d'écoute GPRS"
},
{
  "missId":"MISS_LANPORT",
  "es":"Puerto de escucha Ethernet/Wifi",
  "en":"Ethernet/Wifi Listening port",
  "fr":"Port d'écoute Ethernet/Wifi"
},
{
  "missId":"MISS_TGPRSPORT",
  "es":"Puerto protocolo transparente GPRS",
  "en":"GPRS transparent protocol port",
  "fr":"Port protocol transparent GPRS"
},
{
  "missId":"MISS_TLANPORT",
  "es":"Puerto protocolo transparente LAN",
  "en":"LAN transparent protocol port",
  "fr":"Port protocol transparent LAN"
},
{
  "missId":"MISS_LANCFG",
  "es":"Configuración LAN",
  "en":"LAN Configuration",
  "fr":"Configuration LAN"
},
{
  "missId":"MISS_CIPHER",
  "es":"Claves de cifrado",
  "en":"Encryption codes",
  "fr":"Codes de cryptage"
},
{
  "missId":"MISS_UPNP",
  "es":"Puerto UPNP",
  "en":"UPNP port",
  "fr":"UPNP port"
},
{
  "missId":"MISS_IPPING",
  "es":"Ping IP",
  "en":"Ping IP",
  "fr":"Ping IP"
},
{
  "missId":"MISS_IPADD",
  "es":"Dirección IP 1/4",
  "en":"IP Address 1/4",
  "fr":"Adresse IP 1/4"
},
{
  "missId":"MISS_IPGATEWAY",
  "es":"Dirección IP Puerta de enlace 1/4",
  "en":"Gateway IP Address 1/4",
  "fr":"Adresse IP de la passerelle 1/4"
},
{
  "missId":"MISS_IPMASK",
  "es":"Máscara de red 1/4",
  "en":"IP net Mask 1/4",
  "fr":"Masque de sous réseau 1/4"
},
{
  "missId":"MISS_IPDNS",
  "es":"DNS Pri. IP 1/4",
  "en":"DNS Pri. IP 1/4",
  "fr":"DNS Pri. IP 1/4"
},
{
  "missId":"MISS_IPONVIF",
  "es":"IP Camera",
  "en":"IP Camera",
  "fr":"IP Camera"
},
{
  "missId":"MISS_BIDI",
  "es":"Bidireccional",
  "en":"Downloading",
  "fr":"Téléchargement"
},
{
  "missId":"MISS_BIDICSD",
  "es":"Bidireccional (Vmodem/CSD)",
  "en":"(Vmodem/CSD) download phone",
  "fr":"Téléchargement (Vmodem/CSD)"
},
{
  "missId":"MISS_BIDITRIES",
  "es":"Intentos-callback | Rings",
  "en":"Callback attemps | Rings",
  "fr":"Essais - callback|Sonneries"
},
{
  "missId":"MISS_VMODEM",
  "es":"Vmodem Mod [0=V23,1=Bell202,2=V21,4=Bell103]",
  "en":"Vmodem Mod [0=V23,1=Bell202,2=V21,4=Bell103]",
  "fr":"Vmodem Mod [0=V23,1=Bell202,2=V21,4=Bell103]"
},
{
  "missId":"MISS_REPORTS",
  "es":"Reportajes",
  "en":"Reports",
  "fr":"Rapports"
},
{
  "missId":"MISS_REPCODE",
  "es":"Código Reportaje",
  "en":"Report code",
  "fr":"code de rapport"
},
{
  "missId":"MISS_REPEVZONES",
  "es":"Eventos Zonas",
  "en":"Zone Events",
  "fr":"Évènements Zones"
},
{
  "missId":"MISS_REPTAMPER",
  "es":"Restauración Tamper | Tamper",
  "en":"Tamper Restore | Tamper of Zone",
  "fr":"Restauration Autoprotection | Autoprotection de la Zone"
},
{
  "missId":"MISS_REPBYPASS",
  "es":"Restauración Omisión | Omisión",
  "en":"Bypass Restore | Bypass of Zone",
  "fr":"Restauration Omission | Omission"
},
{
  "missId":"MISS_REPALARM",
  "es":"Restauración Avería | Restauración de Alarma",
  "en":"Failure Restore | Alarm Restore",
  "fr":"Restauration de Défaut | Restauration d'alarme"
},
{
  "missId":"MISS_REPDAY",
  "es":"Restauración Día | Alarma Zona Día",
  "en":"Day Restore | Day Alarm",
  "fr":"Restauraltion  jour | Alarme  jour"
},
{
  "missId":"MISS_REPSENTINEL",
  "es":"Restauración Vigilancia | Vigilancia",
  "en":"Sentinel Restore |  Sentinel Supervision",
  "fr":"Restauration sourveillance zone | Défaut sourveillance zone"
},
{
  "missId":"MISS_REPNEARALARM",
  "es":"Prealarma de robo",
  "en":"Burglary near alarm",
  "fr":"Pré alarme de vol"
},
{
  "missId":"MISS_REPTEMP",
  "es":"Alarma Alta | Baja temperatura",
  "en":"High Temperature | low temperature alarm",
  "fr":"Alarme  haute | basse temperature"
},
{
  "missId":"MISS_REPFAIL",
  "es":"Eventos Averias",
  "en":"Failure Events",
  "fr":"Évènements Evaries"
},
{
  "missId":"MISS_REPWFAIL",
  "es":"Fallo TX ó Saturación RF del Receptor",
  "en":"TX VR Failure or Jamming of wireless receiver",
  "fr":"Disfonctionnement TX VR ou Saturation du récepteur radio"
},
{
  "missId":"MISS_REPWBATT",
  "es":"Batería Baja TX VR",
  "en":"Low Battery of TX VR",
  "fr":"Batterie du TX VR faible"
},
{
  "missId":"MISS_REPOUTFAIL",
  "es":"Avería Salidas y 12V",
  "en":"Outputs and 12V failure",
  "fr":"Défaut des sorties et 12V"
},
{
  "missId":"MISS_REPMODFAIL",
  "es":"Fallo módulo expansión",
  "en":"Expansion module failure",
  "fr":"Disfonctionnement du module d'expension"
},
{
  "missId":"MISS_REPONOFF",
  "es":"Eventos on/off",
  "en":"On/off Events",
  "fr":"Évènements on/off"
},
{
  "missId":"MISS_REPARMUSER",
  "es":"Armado | Desarmado de Usuario",
  "en":"User Arming | Disarming",
  "fr":"Armement | Désarmement d'utilisateur"
},
{
  "missId":"MISS_REPARMAREA",
  "es":"Armado | Desarmado de Área",
  "en":"Area Arming | Disarming",
  "fr":"Armement | Désarmement d'un secteur"
},
{
  "missId":"MISS_REPALARMCANCEL",
  "es":"Anulación de Alarma",
  "en":"Alarm Cancel",
  "fr":"Annulation de l'alarme"
},
{
  "missId":"MISS_REPFAILTOCLOSE",
  "es":"Fallo al armar | Armado forzado",
  "en":"Fail to arm | Forced arm",
  "fr":"Fail to arm | Forced arm"
},
{
  "missId":"MISS_REPMISCELANEA",
  "es":"Miscelánea",
  "en":"Miscellaneous",
  "fr":"Divers"
},
{
  "missId":"MISS_REPAMBUSH",
  "es":"Código Coacción",
  "en":"Ambush code",
  "fr":"Code de contrainte"
},
{
  "missId":"MISS_REPPOLICE",
  "es":"Aviso Policía",
  "en":"Police – HoldUp Report",
  "fr":"Appel police"
},
{
  "missId":"MISS_REPFIRE",
  "es":"Aviso Bomberos",
  "en":"Firemen Report",
  "fr":"Appel pompiers"
},
{
  "missId":"MISS_REPMEDICAL",
  "es":"Ermergencia Médica",
  "en":"Medical emergency",
  "fr":"Urgence médicale"
},
{
  "missId":"MISS_REPKPTAMPER",
  "es":"Sabotaje Teclado",
  "en":"Keypad Sabotage",
  "fr":"Sabotage du clavier"
},
{
  "missId":"MISS_REPGFAIL",
  "es":"Fallo línea [TELCO2_GSM/GPRS | TELCO1_PSTN/ETH]",
  "en":"Phone Line Failure [TELCO2_GSM/GPRS | TELCO1_PSTN/ETH]",
  "fr":"Défaut ligne téléphonique [TELCO2_GSM/GPRS | TELCO1_PSTN/ETH]"
},
{
  "missId":"MISS_REPACFAIL",
  "es":"Fallo de Red",
  "en":"Mains Failure",
  "fr":"Défaut d'alimentation secteur"
},
{
  "missId":"MISS_REPACRESTORE",
  "es":"Restauración fallo de Red",
  "en":"Mains Restore",
  "fr":"Restauration alimentation secteur"
},
{
  "missId":"MISS_REPLOWBATT",
  "es":"Batería Baja",
  "en":"Low Battery",
  "fr":"Batterie Faible"
},
{
  "missId":"MISS_REPBATTRESTORE",
  "es":"Restauración Batería Baja",
  "en":"Battery Restore",
  "fr":"Restauration batterie"
},
{
  "missId":"MISS_REPTEST",
  "es":"Reportaje Test telefónico y Polling IP",
  "en":"Phone Test Report and IP polling",
  "fr":"Test téléphonique et IP polling"
},
{
  "missId":"MISS_REPSTART",
  "es":"Pérdida Fecha-Hora y Acceso bidireccional",
  "en":"Invalidate Date-Hour and Download access",
  "fr":"Date-heure invalide et Access téléchargement"
},
{
  "missId":"MISS_REPGRESTORE",
  "es":"Restauración Linea [TELCO2_GSM/GPRS:TELCO1_PSTN]",
  "en":"Phone Line Restore [TELCO2_GSM/GPRS:TELCO1_PSTN]",
  "fr":"Restauration ligne téléphonique [TELCO2_GSM/GPRS:TELCO1_PSTN]"
},
{
  "missId":"MISS_ACCOUNTS",
  "es":"Códigos de abonado",
  "en":"Account number",
  "fr":"Codes abonnés"
},
