/* XPM */
static char *calc_xpm[] = {
/* columns rows colors chars-per-pixel */
"16 16 219 2",
"   c black",
".  c #08080C",
"X  c #0C0C10",
"o  c #111117",
"O  c #121216",
"+  c #141418",
"@  c #16151A",
"#  c #16161B",
"$  c #17171C",
"%  c #17171E",
"&  c #18181E",
"*  c #18181F",
"=  c #1A1A20",
"-  c #242429",
";  c #27272D",
":  c #28282F",
">  c #29292E",
",  c #2A2A2F",
"<  c #2A2930",
"1  c #2A2A30",
"2  c #2A2A31",
"3  c #2A2B32",
"4  c #2D2C31",
"5  c #3E7641",
"6  c #5C5C60",
"7  c #65656D",
"8  c #6F6F78",
"9  c #00890F",
"0  c #09961E",
"q  c #12991D",
"w  c #1B9E1D",
"e  c #1C9237",
"r  c #2A9F0E",
"t  c #2D963E",
"y  c #379F3E",
"u  c #3A9E3F",
"i  c #24A31D",
"p  c #2DA71E",
"a  c #39AF1E",
"s  c #46A235",
"d  c #5C906A",
"f  c #43A340",
"g  c #4BAA40",
"h  c #4EAB42",
"j  c #D65456",
"k  c #8A8A96",
"l  c #809C81",
"z  c #929294",
"x  c #9A9A9D",
"c  c #9B9B9F",
"v  c #9C9CA0",
"b  c #9C9CA1",
"n  c #9D9DA0",
"m  c #9E9FA0",
"M  c #9F9FA1",
"N  c #9D9DA4",
"B  c #9F9FA5",
"V  c #9F9FA6",
"C  c #96AF98",
"Z  c #98AC96",
"A  c #9DB69F",
"S  c #9EB7A1",
"D  c #A0A0A5",
"F  c #A1A1A9",
"G  c #A6A7AD",
"H  c #A6A6AF",
"J  c #AEAAB4",
"K  c #A1B8A3",
"L  c #A1BBA2",
"P  c #A2BBA4",
"I  c #A3BCA6",
"U  c #A6BFA7",
"Y  c #B2A9B7",
"T  c #B2AAB6",
"R  c #B2ABB7",
"E  c #B3AAB6",
"W  c #B3AAB7",
"Q  c #B3ACB7",
"!  c #B4ACB7",
"~  c #B0AEBE",
"^  c #B4ADB9",
"/  c #B2B0B4",
"(  c #B2BCB2",
")  c #B9B9BD",
"_  c #BCBCBC",
"`  c gray",
"'  c #93ADD0",
"]  c #90B1DD",
"[  c #88AEE3",
"{  c #A6B7D0",
"}  c #A5BAD6",
"|  c #A5BAD9",
" . c #ADBED5",
".. c #B1B2C2",
"X. c #B7B9C5",
"o. c #BABCC4",
"O. c #BCBCC1",
"+. c #BDBCC0",
"@. c #BCBEC2",
"#. c #BEBDC1",
"$. c #BFBDC1",
"%. c #BEBEC2",
"&. c #BFBFC3",
"*. c #BCBBDF",
"=. c #A8A6EB",
"-. c #ACACE0",
";. c #A9A8EA",
":. c #B2B1E2",
">. c #9FC1EF",
",. c #BDC0C4",
"<. c #BDC7CC",
"1. c #B5C1D2",
"2. c #B5C7D3",
"3. c #BCC7D8",
"4. c #B5C7E0",
"5. c #D68E8C",
"6. c #D69F9A",
"7. c #C1A0A1",
"8. c #C6B4B7",
"9. c #D9BCB8",
"0. c #C0BEC1",
"q. c #C0BEC3",
"w. c #C1BFC8",
"e. c #C0C0C1",
"r. c #C2C0C0",
"t. c #C2C3C3",
"y. c #C3C3C3",
"u. c #C2C3C5",
"i. c #C3C3C7",
"p. c #C7C7C3",
"a. c gray77",
"s. c #C5C5C5",
"d. c #C6C6C6",
"f. c gray78",
"g. c #C2C2C8",
"h. c #C4C4C8",
"j. c #C7C5C8",
"k. c #C7C7C8",
"l. c #C7C6CA",
"z. c #C7C7CA",
"x. c #C7C7CB",
"c. c #CACAC6",
"v. c #CCC8C3",
"b. c #CDCAC6",
"n. c #C8C8C8",
"m. c #C8C8C9",
"M. c #CAC9CA",
"N. c #CACACA",
"B. c #CBCACA",
"V. c #CBCBCB",
"C. c #CBC9CD",
"Z. c #CAC9CF",
"A. c #CFCDC9",
"S. c gray80",
"D. c #CDCDCD",
"F. c #CECECE",
"G. c gray81",
"H. c #C6C6D3",
"J. c #C2CAD7",
"K. c #C7C8D2",
"L. c #CBCBD0",
"P. c #CDCDD2",
"I. c #CECED2",
"U. c #CFCFD3",
"Y. c #D8C6C5",
"T. c #D0D0CF",
"R. c #D2D2CE",
"E. c #D3D3CF",
"W. c #D6D3CE",
"Q. c gray82",
"!. c LightGray",
"~. c #D2D1D7",
"^. c #D5D3D0",
"/. c #D5D5D4",
"(. c #D5D5D5",
"). c #D6D6D5",
"_. c #D7D7D4",
"`. c #D6D6D7",
"'. c #D2D7DE",
"]. c #D3D9D4",
"[. c #D1D9DF",
"{. c #D5D9DC",
"}. c #D8D7D3",
"|. c #D8D8D7",
" X c #D9D9D8",
".X c #D8D9DD",
"XX c #DADCDD",
"oX c #DFDEDB",
"OX c gray87",
"+X c #C7C5E3",
"@X c #C3CEE4",
"#X c #C9C9E5",
"$X c #CECEE3",
"%X c #CFCEE5",
"&X c #D2D3E0",
"*X c #D5DBE4",
"=X c #DBDEE2",
"-X c #DFDFE0",
";X c #DAE0E4",
":X c #E0E0DE",
">X c #E3E4E4",
",X c #E7E7E6",
"<X c #E8E2E1",
"1X c #E8E8E7",
"2X c gray91",
"3X c #E9E9E8",
"4X c #ECECEB",
"5X c #ECEDEC",
"6X c #EEEEEC",
"7X c #EEEEED",
"8X c #F2F2F1",
"9X c #F6F6F4",
"0X c #FDF3FB",
"qX c #FCF4FA",
"wX c #F8F8F7",
"eX c #FEFCFC",
"rX c #FEFEFC",
"tX c gray100",
"yX c None",
/* pixels */
"yX6 m / ^ ! W W W W W W J G 7 . ",
"yXz tX].L U I P L S A C ( eX) o ",
"yXm tXl r a p i w q 0 9 5 qXu.o ",
"yXx tXZ s h g f u y t e d qX%.+ ",
"yXx tXH.X.U...i.C.~ Z.8.7.7X%.+ ",
"yXm 7X-.:.~.=.*.H.=.@X5.j Y.<.+ ",
"yXb 9X%X$XOX#X&X.X+X*X9.6.<X,.$ ",
"yXm 9XR.E.,Xc._.:Xp.oX[.2.7X%.+ ",
"yXV 1Xf.d.d.N.d.u.B.v.} [ '.8.= ",
"yXm 8XN.M.OXd.F.`.0._.J.{ >X,.& ",
"yXD 1Xf.d.F.d.c.c.d.B. .] {.%.& ",
"yXV 4XF.Z.`.V.T.R.M.E.3.| =X%.& ",
"yXF 2Xu.y.!.` f.A.` A. .' XX%.& ",
"yXG 7X|._.!.|.`.T. XW.4.>.;Xk.* ",
"yX8 U.d.<.Z.8.h.x.O.l.i.o.U.k X ",
"yXX - 3 3 : 3 : : 3 ; , 4 3 o   "
};
